simulation/qsim/dec4to16.msim.vcd
$comment
	File created using the following command:
		vcd file dec4to16.msim.vcd -direction
$end
$date
	Tue Dec 01 20:50:07 2020
$end
$version
	ModelSim Version 10.1d
$end
$timescale
	1ps
$end
$scope module dec4to16_vlg_vec_tst $end
$var reg 1 ! En $end
$var reg 4 " w [3:0] $end
$var wire 1 # y [15] $end
$var wire 1 $ y [14] $end
$var wire 1 % y [13] $end
$var wire 1 & y [12] $end
$var wire 1 ' y [11] $end
$var wire 1 ( y [10] $end
$var wire 1 ) y [9] $end
$var wire 1 * y [8] $end
$var wire 1 + y [7] $end
$var wire 1 , y [6] $end
$var wire 1 - y [5] $end
$var wire 1 . y [4] $end
$var wire 1 / y [3] $end
$var wire 1 0 y [2] $end
$var wire 1 1 y [1] $end
$var wire 1 2 y [0] $end
$var wire 1 3 sampler $end
$scope module i1 $end
$var wire 1 4 gnd $end
$var wire 1 5 vcc $end
$var wire 1 6 unknown $end
$var tri1 1 7 devclrn $end
$var tri1 1 8 devpor $end
$var tri1 1 9 devoe $end
$var wire 1 : En~combout $end
$var wire 1 ; Mux15~0_combout $end
$var wire 1 < Mux15~1_combout $end
$var wire 1 = Mux14~0_combout $end
$var wire 1 > Mux13~0_combout $end
$var wire 1 ? Mux13~1_combout $end
$var wire 1 @ Mux12~0_combout $end
$var wire 1 A Mux11~0_combout $end
$var wire 1 B Mux11~1_combout $end
$var wire 1 C Mux10~0_combout $end
$var wire 1 D Mux9~0_combout $end
$var wire 1 E Mux9~1_combout $end
$var wire 1 F Mux8~0_combout $end
$var wire 1 G Mux7~0_combout $end
$var wire 1 H Mux6~0_combout $end
$var wire 1 I Mux5~0_combout $end
$var wire 1 J Mux4~0_combout $end
$var wire 1 K Mux3~0_combout $end
$var wire 1 L Mux2~0_combout $end
$var wire 1 M Mux1~0_combout $end
$var wire 1 N Mux0~0_combout $end
$var wire 1 O w~combout [3] $end
$var wire 1 P w~combout [2] $end
$var wire 1 Q w~combout [1] $end
$var wire 1 R w~combout [0] $end
$upscope $end
$upscope $end
$enddefinitions $end
#0
$dumpvars
1!
b0 "
12
01
00
0/
0.
0-
0,
0+
0*
0)
0(
0'
0&
0%
0$
0#
x3
04
15
x6
17
18
19
1:
1;
1<
0=
0>
0?
0@
0A
0B
0C
0D
0E
0F
0G
0H
0I
0J
0K
0L
0M
0N
0R
0Q
0P
0O
$end
#10000
b1 "
1R
03
1=
0<
11
02
#20000
b11 "
b10 "
0R
1Q
13
0=
1<
1>
0;
1?
0<
01
12
10
02
#30000
b11 "
1R
03
1@
0?
1/
00
#40000
b111 "
b101 "
b100 "
0R
0Q
1P
13
0@
1?
1A
0>
1B
0?
0/
10
1.
00
#50000
b101 "
1R
03
1C
0B
1-
0.
#60000
b111 "
b110 "
0R
1Q
13
0C
1B
1D
0A
1E
0B
0-
1.
1,
0.
#70000
b111 "
1R
03
1F
0E
1+
0,
#80000
b1111 "
b1011 "
b1001 "
b1000 "
0R
0Q
0P
1O
13
1M
0F
0D
1;
0M
1G
1$
0+
0$
1*
#90000
b1001 "
1R
03
1H
0G
1)
0*
#100000
b1011 "
b1010 "
0R
1Q
13
0H
1G
1>
0;
1I
0G
0)
1*
1(
0*
#110000
b1011 "
1R
03
1J
0I
1'
0(
#120000
b1111 "
b1101 "
b1100 "
0R
0Q
1P
13
0J
1I
1A
0>
1K
0I
0'
1(
1&
0(
#130000
b1101 "
1R
03
1L
0K
1%
0&
#140000
b1111 "
b1110 "
0R
1Q
13
0L
1K
1D
0A
1M
0K
0%
1&
1$
0&
#150000
b1111 "
1R
03
1N
0M
1#
0$
